 
$HDR
<h4>Reference #[@ref]</h4>
#header
<hr>
$SQL
exec CLOUDPOS..cs_add2cart '@ref', null
$BDY

<div id='dv^SEQ^' class='col col-sm-12' style='font-size:13px;'>
 
<div class='rndDiv' width='94%'>
<table width='100%'>
<tr><td width='25%'>
 <img id='^SKCODE^'  class='pimage' src=' ' height='110px' >
 <td id='rw^SEQ^' >
  	   SKU: <b>^SKCODE^</b>  <br>
 	   Quant:<label class='numeric'> ^QNT^</label> Ea 
 	   Alloc:<label class='numeric'>^ALC^</label> 
 	   Price:<label class='numeric'>^UPC^</label><br>
       Total:<label class='numeric'>^TOT^ </label> Baht 
       STATUS:<b>--^STAT^--</b><br>
  	   Name:^PRN^<br>
 	   Note:<label class='helpme' onclick="javascript:showPLPP('^SKCODE^')"> ^REM^ </label>

 </tr> 	
 </table>

 </div>
 
 </div>
 <br>
 </div>
 
<br>

$ERX
<br><center>
<img src='../images/sorry.jpg' ><br>@error
</center>
$CMP
 <div class='col col-sm-12' id='totalLine' 
 style='background-color:teal;color:yellow;text-align:center;'> 
  Grand Total  .... 
 <label class='numeric'> @SUM(TOT)</label>
</div>
$END
 
</div>
</div>

//<h4>  PLPP </h4>
//#bonus
//<div>
//To verify PLPP click at Note in each Item
//<hr>
   
$REM
|XID #bonus  
|HDR
<table id='bonusTab' style='width:100%'>
<thead bgcolor='silver'>
<th>SEQ<th>Product<th>Quant<th>Disc<th>Remark
</thead>
|SQL
exec CLOUDPOS..cs_checkPLPP '@ref'
|BDY
<tr><td>^SEQ^
<td>^SKNAME^
<td>^QNT^
<td class='numeric'>^DSC^
<td>^REMARK^
|ERX 
 <tr><td colspan='5'>@error
|END
</table>


$TAB
|XID  #header
|HDR 

|SQL
use CLOUDPOS
Select UNAME,MOBILE,EMAIL,STATUS
from scregister a inner join SCMEMBER b on a.MEMID=b.MEMID 
where REF='@ref'
|BDY 
<div class='well' id='custDiv' style='z-index:4;position:absolute;top:20px;left:600px;font-size:13px;' >
<pre>
   Cust Name: ^UNAME^  
   MOBILE: ^MOBILE^ 
   EMAIL: ^EMAIL^  
   STATUS:<label id='refStatus'> ^STATUS^</label'>
</pre>
|END
</div>
 
 
 